CRITICAL - 2021-06-16 17:25:02 --> Undefined property: stdClass::$whatsapp
#0 D:\LaragonPortable\www\myth\app\Views\admin\detail.php(34): CodeIgniter\Debug\Exceptions->errorHandler(8, 'Undefined prope...', 'D:\\LaragonPorta...', 34, Array)
#1 D:\LaragonPortable\www\myth\vendor\codeigniter4\framework\system\View\View.php(230): include('D:\\LaragonPorta...')
#2 D:\LaragonPortable\www\myth\vendor\codeigniter4\framework\system\View\View.php(232): CodeIgniter\View\View->CodeIgniter\View\{closure}()
#3 D:\LaragonPortable\www\myth\vendor\codeigniter4\framework\system\Common.php(1271): CodeIgniter\View\View->render('admin/detail', Array, true)
#4 D:\LaragonPortable\www\myth\app\Controllers\Admin.php(79): view('admin/detail', Array)
#5 D:\LaragonPortable\www\myth\vendor\codeigniter4\framework\system\CodeIgniter.php(928): App\Controllers\Admin->detail('2')
#6 D:\LaragonPortable\www\myth\vendor\codeigniter4\framework\system\CodeIgniter.php(436): CodeIgniter\CodeIgniter->runController(Object(App\Controllers\Admin))
#7 D:\LaragonPortable\www\myth\vendor\codeigniter4\framework\system\CodeIgniter.php(336): CodeIgniter\CodeIgniter->handleRequest(NULL, Object(Config\Cache), false)
#8 D:\LaragonPortable\www\myth\public\index.php(37): CodeIgniter\CodeIgniter->run()
#9 {main}
CRITICAL - 2021-06-16 17:46:09 --> Undefined variable: user
#0 D:\LaragonPortable\www\myth\app\Views\admin\profile.php(26): CodeIgniter\Debug\Exceptions->errorHandler(8, 'Undefined varia...', 'D:\\LaragonPorta...', 26, Array)
#1 D:\LaragonPortable\www\myth\vendor\codeigniter4\framework\system\View\View.php(230): include('D:\\LaragonPorta...')
#2 D:\LaragonPortable\www\myth\vendor\codeigniter4\framework\system\View\View.php(232): CodeIgniter\View\View->CodeIgniter\View\{closure}()
#3 D:\LaragonPortable\www\myth\vendor\codeigniter4\framework\system\Common.php(1271): CodeIgniter\View\View->render('admin/profile', Array, true)
#4 D:\LaragonPortable\www\myth\app\Controllers\Admin.php(93): view('admin/profile', Array)
#5 D:\LaragonPortable\www\myth\vendor\codeigniter4\framework\system\CodeIgniter.php(928): App\Controllers\Admin->profile()
#6 D:\LaragonPortable\www\myth\vendor\codeigniter4\framework\system\CodeIgniter.php(436): CodeIgniter\CodeIgniter->runController(Object(App\Controllers\Admin))
#7 D:\LaragonPortable\www\myth\vendor\codeigniter4\framework\system\CodeIgniter.php(336): CodeIgniter\CodeIgniter->handleRequest(NULL, Object(Config\Cache), false)
#8 D:\LaragonPortable\www\myth\public\index.php(37): CodeIgniter\CodeIgniter->run()
#9 {main}
CRITICAL - 2021-06-16 17:47:23 --> Undefined variable: groups
#0 D:\LaragonPortable\www\myth\app\Views\admin\profile.php(39): CodeIgniter\Debug\Exceptions->errorHandler(8, 'Undefined varia...', 'D:\\LaragonPorta...', 39, Array)
#1 D:\LaragonPortable\www\myth\vendor\codeigniter4\framework\system\View\View.php(230): include('D:\\LaragonPorta...')
#2 D:\LaragonPortable\www\myth\vendor\codeigniter4\framework\system\View\View.php(232): CodeIgniter\View\View->CodeIgniter\View\{closure}()
#3 D:\LaragonPortable\www\myth\vendor\codeigniter4\framework\system\Common.php(1271): CodeIgniter\View\View->render('admin/profile', Array, true)
#4 D:\LaragonPortable\www\myth\app\Controllers\Admin.php(93): view('admin/profile', Array)
#5 D:\LaragonPortable\www\myth\vendor\codeigniter4\framework\system\CodeIgniter.php(928): App\Controllers\Admin->profile()
#6 D:\LaragonPortable\www\myth\vendor\codeigniter4\framework\system\CodeIgniter.php(436): CodeIgniter\CodeIgniter->runController(Object(App\Controllers\Admin))
#7 D:\LaragonPortable\www\myth\vendor\codeigniter4\framework\system\CodeIgniter.php(336): CodeIgniter\CodeIgniter->handleRequest(NULL, Object(Config\Cache), false)
#8 D:\LaragonPortable\www\myth\public\index.php(37): CodeIgniter\CodeIgniter->run()
#9 {main}
CRITICAL - 2021-06-16 17:51:36 --> Call to undefined function App\Controllers\encrypt()
#0 D:\LaragonPortable\www\myth\vendor\codeigniter4\framework\system\CodeIgniter.php(928): App\Controllers\Admin->profile()
#1 D:\LaragonPortable\www\myth\vendor\codeigniter4\framework\system\CodeIgniter.php(436): CodeIgniter\CodeIgniter->runController(Object(App\Controllers\Admin))
#2 D:\LaragonPortable\www\myth\vendor\codeigniter4\framework\system\CodeIgniter.php(336): CodeIgniter\CodeIgniter->handleRequest(NULL, Object(Config\Cache), false)
#3 D:\LaragonPortable\www\myth\public\index.php(37): CodeIgniter\CodeIgniter->run()
#4 {main}
CRITICAL - 2021-06-16 17:54:34 --> Invalid argument supplied for foreach()
#0 D:\LaragonPortable\www\myth\app\Views\templates\_message_block.php(15): CodeIgniter\Debug\Exceptions->errorHandler(2, 'Invalid argumen...', 'D:\\LaragonPorta...', 15, Array)
#1 D:\LaragonPortable\www\myth\vendor\codeigniter4\framework\system\View\View.php(230): include('D:\\LaragonPorta...')
#2 D:\LaragonPortable\www\myth\vendor\codeigniter4\framework\system\View\View.php(232): CodeIgniter\View\View->CodeIgniter\View\{closure}()
#3 D:\LaragonPortable\www\myth\vendor\codeigniter4\framework\system\Common.php(1271): CodeIgniter\View\View->render('templates\\_mess...', Array, true)
#4 D:\LaragonPortable\www\myth\app\Views\admin\profile.php(18): view('templates\\_mess...')
#5 D:\LaragonPortable\www\myth\vendor\codeigniter4\framework\system\View\View.php(230): include('D:\\LaragonPorta...')
#6 D:\LaragonPortable\www\myth\vendor\codeigniter4\framework\system\View\View.php(232): CodeIgniter\View\View->CodeIgniter\View\{closure}()
#7 D:\LaragonPortable\www\myth\vendor\codeigniter4\framework\system\Common.php(1271): CodeIgniter\View\View->render('admin/profile', Array, true)
#8 D:\LaragonPortable\www\myth\app\Controllers\Admin.php(116): view('admin/profile', Array)
#9 D:\LaragonPortable\www\myth\vendor\codeigniter4\framework\system\CodeIgniter.php(928): App\Controllers\Admin->profile()
#10 D:\LaragonPortable\www\myth\vendor\codeigniter4\framework\system\CodeIgniter.php(436): CodeIgniter\CodeIgniter->runController(Object(App\Controllers\Admin))
#11 D:\LaragonPortable\www\myth\vendor\codeigniter4\framework\system\CodeIgniter.php(336): CodeIgniter\CodeIgniter->handleRequest(NULL, Object(Config\Cache), false)
#12 D:\LaragonPortable\www\myth\public\index.php(37): CodeIgniter\CodeIgniter->run()
#13 {main}
CRITICAL - 2021-06-16 17:56:35 --> Invalid argument supplied for foreach()
#0 D:\LaragonPortable\www\myth\app\Views\templates\_message_block.php(15): CodeIgniter\Debug\Exceptions->errorHandler(2, 'Invalid argumen...', 'D:\\LaragonPorta...', 15, Array)
#1 D:\LaragonPortable\www\myth\vendor\codeigniter4\framework\system\View\View.php(230): include('D:\\LaragonPorta...')
#2 D:\LaragonPortable\www\myth\vendor\codeigniter4\framework\system\View\View.php(232): CodeIgniter\View\View->CodeIgniter\View\{closure}()
#3 D:\LaragonPortable\www\myth\vendor\codeigniter4\framework\system\Common.php(1271): CodeIgniter\View\View->render('templates\\_mess...', Array, true)
#4 D:\LaragonPortable\www\myth\app\Views\admin\profile.php(18): view('templates\\_mess...')
#5 D:\LaragonPortable\www\myth\vendor\codeigniter4\framework\system\View\View.php(230): include('D:\\LaragonPorta...')
#6 D:\LaragonPortable\www\myth\vendor\codeigniter4\framework\system\View\View.php(232): CodeIgniter\View\View->CodeIgniter\View\{closure}()
#7 D:\LaragonPortable\www\myth\vendor\codeigniter4\framework\system\Common.php(1271): CodeIgniter\View\View->render('admin/profile', Array, true)
#8 D:\LaragonPortable\www\myth\app\Controllers\Admin.php(117): view('admin/profile', Array)
#9 D:\LaragonPortable\www\myth\vendor\codeigniter4\framework\system\CodeIgniter.php(928): App\Controllers\Admin->profile()
#10 D:\LaragonPortable\www\myth\vendor\codeigniter4\framework\system\CodeIgniter.php(436): CodeIgniter\CodeIgniter->runController(Object(App\Controllers\Admin))
#11 D:\LaragonPortable\www\myth\vendor\codeigniter4\framework\system\CodeIgniter.php(336): CodeIgniter\CodeIgniter->handleRequest(NULL, Object(Config\Cache), false)
#12 D:\LaragonPortable\www\myth\public\index.php(37): CodeIgniter\CodeIgniter->run()
#13 {main}
CRITICAL - 2021-06-16 17:57:03 --> Invalid argument supplied for foreach()
#0 D:\LaragonPortable\www\myth\app\Views\templates\_message_block.php(15): CodeIgniter\Debug\Exceptions->errorHandler(2, 'Invalid argumen...', 'D:\\LaragonPorta...', 15, Array)
#1 D:\LaragonPortable\www\myth\vendor\codeigniter4\framework\system\View\View.php(230): include('D:\\LaragonPorta...')
#2 D:\LaragonPortable\www\myth\vendor\codeigniter4\framework\system\View\View.php(232): CodeIgniter\View\View->CodeIgniter\View\{closure}()
#3 D:\LaragonPortable\www\myth\vendor\codeigniter4\framework\system\Common.php(1271): CodeIgniter\View\View->render('templates\\_mess...', Array, true)
#4 D:\LaragonPortable\www\myth\app\Views\admin\profile.php(18): view('templates\\_mess...')
#5 D:\LaragonPortable\www\myth\vendor\codeigniter4\framework\system\View\View.php(230): include('D:\\LaragonPorta...')
#6 D:\LaragonPortable\www\myth\vendor\codeigniter4\framework\system\View\View.php(232): CodeIgniter\View\View->CodeIgniter\View\{closure}()
#7 D:\LaragonPortable\www\myth\vendor\codeigniter4\framework\system\Common.php(1271): CodeIgniter\View\View->render('admin/profile', Array, true)
#8 D:\LaragonPortable\www\myth\app\Controllers\Admin.php(117): view('admin/profile', Array)
#9 D:\LaragonPortable\www\myth\vendor\codeigniter4\framework\system\CodeIgniter.php(928): App\Controllers\Admin->profile()
#10 D:\LaragonPortable\www\myth\vendor\codeigniter4\framework\system\CodeIgniter.php(436): CodeIgniter\CodeIgniter->runController(Object(App\Controllers\Admin))
#11 D:\LaragonPortable\www\myth\vendor\codeigniter4\framework\system\CodeIgniter.php(336): CodeIgniter\CodeIgniter->handleRequest(NULL, Object(Config\Cache), false)
#12 D:\LaragonPortable\www\myth\public\index.php(37): CodeIgniter\CodeIgniter->run()
#13 {main}
CRITICAL - 2021-06-16 17:58:34 --> Undefined index: group
#0 D:\LaragonPortable\www\myth\app\Controllers\Admin.php(96): CodeIgniter\Debug\Exceptions->errorHandler(8, 'Undefined index...', 'D:\\LaragonPorta...', 96, Array)
#1 D:\LaragonPortable\www\myth\vendor\codeigniter4\framework\system\CodeIgniter.php(928): App\Controllers\Admin->profile('2')
#2 D:\LaragonPortable\www\myth\vendor\codeigniter4\framework\system\CodeIgniter.php(436): CodeIgniter\CodeIgniter->runController(Object(App\Controllers\Admin))
#3 D:\LaragonPortable\www\myth\vendor\codeigniter4\framework\system\CodeIgniter.php(336): CodeIgniter\CodeIgniter->handleRequest(NULL, Object(Config\Cache), false)
#4 D:\LaragonPortable\www\myth\public\index.php(37): CodeIgniter\CodeIgniter->run()
#5 {main}
CRITICAL - 2021-06-16 19:21:21 --> Undefined property: stdClass::$username
#0 D:\LaragonPortable\www\myth\app\Views\resbim\category.php(27): CodeIgniter\Debug\Exceptions->errorHandler(8, 'Undefined prope...', 'D:\\LaragonPorta...', 27, Array)
#1 D:\LaragonPortable\www\myth\vendor\codeigniter4\framework\system\View\View.php(230): include('D:\\LaragonPorta...')
#2 D:\LaragonPortable\www\myth\vendor\codeigniter4\framework\system\View\View.php(232): CodeIgniter\View\View->CodeIgniter\View\{closure}()
#3 D:\LaragonPortable\www\myth\vendor\codeigniter4\framework\system\Common.php(1271): CodeIgniter\View\View->render('resbim/category', Array, true)
#4 D:\LaragonPortable\www\myth\app\Controllers\Resbim.php(35): view('resbim/category', Array)
#5 D:\LaragonPortable\www\myth\vendor\codeigniter4\framework\system\CodeIgniter.php(928): App\Controllers\Resbim->category()
#6 D:\LaragonPortable\www\myth\vendor\codeigniter4\framework\system\CodeIgniter.php(436): CodeIgniter\CodeIgniter->runController(Object(App\Controllers\Resbim))
#7 D:\LaragonPortable\www\myth\vendor\codeigniter4\framework\system\CodeIgniter.php(336): CodeIgniter\CodeIgniter->handleRequest(NULL, Object(Config\Cache), false)
#8 D:\LaragonPortable\www\myth\public\index.php(37): CodeIgniter\CodeIgniter->run()
#9 {main}
CRITICAL - 2021-06-16 19:22:50 --> Undefined property: stdClass::$emaorderil
#0 D:\LaragonPortable\www\myth\app\Views\resbim\category.php(27): CodeIgniter\Debug\Exceptions->errorHandler(8, 'Undefined prope...', 'D:\\LaragonPorta...', 27, Array)
#1 D:\LaragonPortable\www\myth\vendor\codeigniter4\framework\system\View\View.php(230): include('D:\\LaragonPorta...')
#2 D:\LaragonPortable\www\myth\vendor\codeigniter4\framework\system\View\View.php(232): CodeIgniter\View\View->CodeIgniter\View\{closure}()
#3 D:\LaragonPortable\www\myth\vendor\codeigniter4\framework\system\Common.php(1271): CodeIgniter\View\View->render('resbim/category', Array, true)
#4 D:\LaragonPortable\www\myth\app\Controllers\Resbim.php(35): view('resbim/category', Array)
#5 D:\LaragonPortable\www\myth\vendor\codeigniter4\framework\system\CodeIgniter.php(928): App\Controllers\Resbim->category()
#6 D:\LaragonPortable\www\myth\vendor\codeigniter4\framework\system\CodeIgniter.php(436): CodeIgniter\CodeIgniter->runController(Object(App\Controllers\Resbim))
#7 D:\LaragonPortable\www\myth\vendor\codeigniter4\framework\system\CodeIgniter.php(336): CodeIgniter\CodeIgniter->handleRequest(NULL, Object(Config\Cache), false)
#8 D:\LaragonPortable\www\myth\public\index.php(37): CodeIgniter\CodeIgniter->run()
#9 {main}
CRITICAL - 2021-06-16 19:22:56 --> Undefined variable: user
#0 D:\LaragonPortable\www\myth\app\Views\resbim\category.php(29): CodeIgniter\Debug\Exceptions->errorHandler(8, 'Undefined varia...', 'D:\\LaragonPorta...', 29, Array)
#1 D:\LaragonPortable\www\myth\vendor\codeigniter4\framework\system\View\View.php(230): include('D:\\LaragonPorta...')
#2 D:\LaragonPortable\www\myth\vendor\codeigniter4\framework\system\View\View.php(232): CodeIgniter\View\View->CodeIgniter\View\{closure}()
#3 D:\LaragonPortable\www\myth\vendor\codeigniter4\framework\system\Common.php(1271): CodeIgniter\View\View->render('resbim/category', Array, true)
#4 D:\LaragonPortable\www\myth\app\Controllers\Resbim.php(35): view('resbim/category', Array)
#5 D:\LaragonPortable\www\myth\vendor\codeigniter4\framework\system\CodeIgniter.php(928): App\Controllers\Resbim->category()
#6 D:\LaragonPortable\www\myth\vendor\codeigniter4\framework\system\CodeIgniter.php(436): CodeIgniter\CodeIgniter->runController(Object(App\Controllers\Resbim))
#7 D:\LaragonPortable\www\myth\vendor\codeigniter4\framework\system\CodeIgniter.php(336): CodeIgniter\CodeIgniter->handleRequest(NULL, Object(Config\Cache), false)
#8 D:\LaragonPortable\www\myth\public\index.php(37): CodeIgniter\CodeIgniter->run()
#9 {main}
CRITICAL - 2021-06-16 19:23:08 --> Undefined property: stdClass::$userid
#0 D:\LaragonPortable\www\myth\app\Views\resbim\category.php(29): CodeIgniter\Debug\Exceptions->errorHandler(8, 'Undefined prope...', 'D:\\LaragonPorta...', 29, Array)
#1 D:\LaragonPortable\www\myth\vendor\codeigniter4\framework\system\View\View.php(230): include('D:\\LaragonPorta...')
#2 D:\LaragonPortable\www\myth\vendor\codeigniter4\framework\system\View\View.php(232): CodeIgniter\View\View->CodeIgniter\View\{closure}()
#3 D:\LaragonPortable\www\myth\vendor\codeigniter4\framework\system\Common.php(1271): CodeIgniter\View\View->render('resbim/category', Array, true)
#4 D:\LaragonPortable\www\myth\app\Controllers\Resbim.php(35): view('resbim/category', Array)
#5 D:\LaragonPortable\www\myth\vendor\codeigniter4\framework\system\CodeIgniter.php(928): App\Controllers\Resbim->category()
#6 D:\LaragonPortable\www\myth\vendor\codeigniter4\framework\system\CodeIgniter.php(436): CodeIgniter\CodeIgniter->runController(Object(App\Controllers\Resbim))
#7 D:\LaragonPortable\www\myth\vendor\codeigniter4\framework\system\CodeIgniter.php(336): CodeIgniter\CodeIgniter->handleRequest(NULL, Object(Config\Cache), false)
#8 D:\LaragonPortable\www\myth\public\index.php(37): CodeIgniter\CodeIgniter->run()
#9 {main}
CRITICAL - 2021-06-16 19:23:09 --> Undefined property: stdClass::$userid
#0 D:\LaragonPortable\www\myth\app\Views\resbim\category.php(29): CodeIgniter\Debug\Exceptions->errorHandler(8, 'Undefined prope...', 'D:\\LaragonPorta...', 29, Array)
#1 D:\LaragonPortable\www\myth\vendor\codeigniter4\framework\system\View\View.php(230): include('D:\\LaragonPorta...')
#2 D:\LaragonPortable\www\myth\vendor\codeigniter4\framework\system\View\View.php(232): CodeIgniter\View\View->CodeIgniter\View\{closure}()
#3 D:\LaragonPortable\www\myth\vendor\codeigniter4\framework\system\Common.php(1271): CodeIgniter\View\View->render('resbim/category', Array, true)
#4 D:\LaragonPortable\www\myth\app\Controllers\Resbim.php(35): view('resbim/category', Array)
#5 D:\LaragonPortable\www\myth\vendor\codeigniter4\framework\system\CodeIgniter.php(928): App\Controllers\Resbim->category()
#6 D:\LaragonPortable\www\myth\vendor\codeigniter4\framework\system\CodeIgniter.php(436): CodeIgniter\CodeIgniter->runController(Object(App\Controllers\Resbim))
#7 D:\LaragonPortable\www\myth\vendor\codeigniter4\framework\system\CodeIgniter.php(336): CodeIgniter\CodeIgniter->handleRequest(NULL, Object(Config\Cache), false)
#8 D:\LaragonPortable\www\myth\public\index.php(37): CodeIgniter\CodeIgniter->run()
#9 {main}
CRITICAL - 2021-06-16 19:29:50 --> Undefined variable: users
#0 D:\LaragonPortable\www\myth\app\Views\resbim\categoryDetail.php(24): CodeIgniter\Debug\Exceptions->errorHandler(8, 'Undefined varia...', 'D:\\LaragonPorta...', 24, Array)
#1 D:\LaragonPortable\www\myth\vendor\codeigniter4\framework\system\View\View.php(230): include('D:\\LaragonPorta...')
#2 D:\LaragonPortable\www\myth\vendor\codeigniter4\framework\system\View\View.php(232): CodeIgniter\View\View->CodeIgniter\View\{closure}()
#3 D:\LaragonPortable\www\myth\vendor\codeigniter4\framework\system\Common.php(1271): CodeIgniter\View\View->render('resbim/category...', Array, true)
#4 D:\LaragonPortable\www\myth\app\Controllers\Resbim.php(35): view('resbim/category...', Array)
#5 D:\LaragonPortable\www\myth\vendor\codeigniter4\framework\system\CodeIgniter.php(928): App\Controllers\Resbim->detailCategory()
#6 D:\LaragonPortable\www\myth\vendor\codeigniter4\framework\system\CodeIgniter.php(436): CodeIgniter\CodeIgniter->runController(Object(App\Controllers\Resbim))
#7 D:\LaragonPortable\www\myth\vendor\codeigniter4\framework\system\CodeIgniter.php(336): CodeIgniter\CodeIgniter->handleRequest(NULL, Object(Config\Cache), false)
#8 D:\LaragonPortable\www\myth\public\index.php(37): CodeIgniter\CodeIgniter->run()
#9 {main}
ERROR - 2021-06-16 19:40:21 --> You have an error in your SQL syntax; check the manual that corresponds to your MariaDB server version for the right syntax to use near '*, `resbim_category`.`name` as `category`)
JOIN `resbim_category` ON `resbim_cat' at line 2
CRITICAL - 2021-06-16 19:40:21 --> You have an error in your SQL syntax; check the manual that corresponds to your MariaDB server version for the right syntax to use near '*, `resbim_category`.`name` as `category`)
JOIN `resbim_category` ON `resbim_cat' at line 2
#0 D:\LaragonPortable\www\myth\vendor\codeigniter4\framework\system\Database\MySQLi\Connection.php(329): mysqli->query('SELECT *\nFROM (...')
#1 D:\LaragonPortable\www\myth\vendor\codeigniter4\framework\system\Database\BaseConnection.php(732): CodeIgniter\Database\MySQLi\Connection->execute('SELECT *\nFROM (...')
#2 D:\LaragonPortable\www\myth\vendor\codeigniter4\framework\system\Database\BaseConnection.php(647): CodeIgniter\Database\BaseConnection->simpleQuery('SELECT *\nFROM (...')
#3 D:\LaragonPortable\www\myth\vendor\codeigniter4\framework\system\Database\BaseBuilder.php(1881): CodeIgniter\Database\BaseConnection->query('SELECT *\nFROM (...', Array, false)
#4 D:\LaragonPortable\www\myth\app\Controllers\Resbim.php(39): CodeIgniter\Database\BaseBuilder->get()
#5 D:\LaragonPortable\www\myth\vendor\codeigniter4\framework\system\CodeIgniter.php(928): App\Controllers\Resbim->detailCategory()
#6 D:\LaragonPortable\www\myth\vendor\codeigniter4\framework\system\CodeIgniter.php(436): CodeIgniter\CodeIgniter->runController(Object(App\Controllers\Resbim))
#7 D:\LaragonPortable\www\myth\vendor\codeigniter4\framework\system\CodeIgniter.php(336): CodeIgniter\CodeIgniter->handleRequest(NULL, Object(Config\Cache), false)
#8 D:\LaragonPortable\www\myth\public\index.php(37): CodeIgniter\CodeIgniter->run()
#9 {main}
CRITICAL - 2021-06-16 19:40:59 --> Trying to get property 'name' of non-object
#0 D:\LaragonPortable\www\myth\app\Views\resbim\categoryDetail.php(27): CodeIgniter\Debug\Exceptions->errorHandler(8, 'Trying to get p...', 'D:\\LaragonPorta...', 27, Array)
#1 D:\LaragonPortable\www\myth\vendor\codeigniter4\framework\system\View\View.php(230): include('D:\\LaragonPorta...')
#2 D:\LaragonPortable\www\myth\vendor\codeigniter4\framework\system\View\View.php(232): CodeIgniter\View\View->CodeIgniter\View\{closure}()
#3 D:\LaragonPortable\www\myth\vendor\codeigniter4\framework\system\Common.php(1271): CodeIgniter\View\View->render('resbim/category...', Array, true)
#4 D:\LaragonPortable\www\myth\app\Controllers\Resbim.php(42): view('resbim/category...', Array)
#5 D:\LaragonPortable\www\myth\vendor\codeigniter4\framework\system\CodeIgniter.php(928): App\Controllers\Resbim->detailCategory()
#6 D:\LaragonPortable\www\myth\vendor\codeigniter4\framework\system\CodeIgniter.php(436): CodeIgniter\CodeIgniter->runController(Object(App\Controllers\Resbim))
#7 D:\LaragonPortable\www\myth\vendor\codeigniter4\framework\system\CodeIgniter.php(336): CodeIgniter\CodeIgniter->handleRequest(NULL, Object(Config\Cache), false)
#8 D:\LaragonPortable\www\myth\public\index.php(37): CodeIgniter\CodeIgniter->run()
#9 {main}
CRITICAL - 2021-06-16 19:41:36 --> Trying to get property 'name' of non-object
#0 D:\LaragonPortable\www\myth\app\Views\resbim\categoryDetail.php(27): CodeIgniter\Debug\Exceptions->errorHandler(8, 'Trying to get p...', 'D:\\LaragonPorta...', 27, Array)
#1 D:\LaragonPortable\www\myth\vendor\codeigniter4\framework\system\View\View.php(230): include('D:\\LaragonPorta...')
#2 D:\LaragonPortable\www\myth\vendor\codeigniter4\framework\system\View\View.php(232): CodeIgniter\View\View->CodeIgniter\View\{closure}()
#3 D:\LaragonPortable\www\myth\vendor\codeigniter4\framework\system\Common.php(1271): CodeIgniter\View\View->render('resbim/category...', Array, true)
#4 D:\LaragonPortable\www\myth\app\Controllers\Resbim.php(43): view('resbim/category...', Array)
#5 D:\LaragonPortable\www\myth\vendor\codeigniter4\framework\system\CodeIgniter.php(928): App\Controllers\Resbim->detailCategory()
#6 D:\LaragonPortable\www\myth\vendor\codeigniter4\framework\system\CodeIgniter.php(436): CodeIgniter\CodeIgniter->runController(Object(App\Controllers\Resbim))
#7 D:\LaragonPortable\www\myth\vendor\codeigniter4\framework\system\CodeIgniter.php(336): CodeIgniter\CodeIgniter->handleRequest(NULL, Object(Config\Cache), false)
#8 D:\LaragonPortable\www\myth\public\index.php(37): CodeIgniter\CodeIgniter->run()
#9 {main}
CRITICAL - 2021-06-16 19:42:19 --> Trying to get property 'name' of non-object
#0 D:\LaragonPortable\www\myth\app\Views\resbim\categoryDetail.php(27): CodeIgniter\Debug\Exceptions->errorHandler(8, 'Trying to get p...', 'D:\\LaragonPorta...', 27, Array)
#1 D:\LaragonPortable\www\myth\vendor\codeigniter4\framework\system\View\View.php(230): include('D:\\LaragonPorta...')
#2 D:\LaragonPortable\www\myth\vendor\codeigniter4\framework\system\View\View.php(232): CodeIgniter\View\View->CodeIgniter\View\{closure}()
#3 D:\LaragonPortable\www\myth\vendor\codeigniter4\framework\system\Common.php(1271): CodeIgniter\View\View->render('resbim/category...', Array, true)
#4 D:\LaragonPortable\www\myth\app\Controllers\Resbim.php(43): view('resbim/category...', Array)
#5 D:\LaragonPortable\www\myth\vendor\codeigniter4\framework\system\CodeIgniter.php(928): App\Controllers\Resbim->detailCategory()
#6 D:\LaragonPortable\www\myth\vendor\codeigniter4\framework\system\CodeIgniter.php(436): CodeIgniter\CodeIgniter->runController(Object(App\Controllers\Resbim))
#7 D:\LaragonPortable\www\myth\vendor\codeigniter4\framework\system\CodeIgniter.php(336): CodeIgniter\CodeIgniter->handleRequest(NULL, Object(Config\Cache), false)
#8 D:\LaragonPortable\www\myth\public\index.php(37): CodeIgniter\CodeIgniter->run()
#9 {main}
CRITICAL - 2021-06-16 19:44:01 --> Call to undefined method CodeIgniter\Database\MySQLi\Builder::order_by()
#0 D:\LaragonPortable\www\myth\vendor\codeigniter4\framework\system\CodeIgniter.php(928): App\Controllers\Resbim->detailCategory()
#1 D:\LaragonPortable\www\myth\vendor\codeigniter4\framework\system\CodeIgniter.php(436): CodeIgniter\CodeIgniter->runController(Object(App\Controllers\Resbim))
#2 D:\LaragonPortable\www\myth\vendor\codeigniter4\framework\system\CodeIgniter.php(336): CodeIgniter\CodeIgniter->handleRequest(NULL, Object(Config\Cache), false)
#3 D:\LaragonPortable\www\myth\public\index.php(37): CodeIgniter\CodeIgniter->run()
#4 {main}
